[
  {
    "id": 0,
    "projectId": 0,
    "performerId": 37,
    "name": "Generic Steel Towels",
    "description": "Magni fugit ut consequatur sit voluptatem eum.",
    "state": 1,
    "createdAt": "2018-09-01T12:05:42.9991778+00:00",
    "finishedAt": null
  },
  {
    "id": 1,
    "projectId": 0,
    "performerId": 99,
    "name": "Producer",
    "description": "Sit ut quo tempora.",
    "state": 0,
    "createdAt": "2018-04-19T02:04:12.5128065+00:00",
    "finishedAt": null
  },
  {
    "id": 2,
    "projectId": 0,
    "performerId": 109,
    "name": "Lake Senior",
    "description": "Et omnis cumque dolorem qui cupiditate aperiam.",
    "state": 0,
    "createdAt": "2020-04-28T05:56:35.3695014+00:00",
    "finishedAt": null
  },
  {
    "id": 3,
    "projectId": 0,
    "performerId": 59,
    "name": "vertical",
    "description": "Et iusto aut impedit.",
    "state": 1,
    "createdAt": "2020-04-02T18:08:19.4287565+00:00",
    "finishedAt": null
  },
  {
    "id": 4,
    "projectId": 0,
    "performerId": 37,
    "name": "Baby Riel",
    "description": "Expedita alias unde vitae esse quia voluptatem dolorum ullam aut.",
    "state": 2,
    "createdAt": "2019-11-01T00:31:11.6934323+00:00",
    "finishedAt": "2021-08-03T07:49:52.8733495+00:00"
  },
  {
    "id": 5,
    "projectId": 0,
    "performerId": 69,
    "name": "Human Granite",
    "description": "Ut ut aliquam nihil dignissimos beatae rerum voluptatem et aut.",
    "state": 0,
    "createdAt": "2019-05-05T07:43:01.4307241+00:00",
    "finishedAt": null
  },
  {
    "id": 6,
    "projectId": 0,
    "performerId": 92,
    "name": "mobile",
    "description": "Placeat esse reprehenderit velit ratione quibusdam officiis dolor expedita.",
    "state": 1,
    "createdAt": "2020-06-21T16:56:40.5937126+00:00",
    "finishedAt": null
  },
  {
    "id": 7,
    "projectId": 0,
    "performerId": 34,
    "name": "Specialist bus",
    "description": "Laboriosam provident officiis quia quia unde et vitae.",
    "state": 0,
    "createdAt": "2019-01-31T19:21:08.9356019+00:00",
    "finishedAt": null
  },
  {
    "id": 8,
    "projectId": 0,
    "performerId": 108,
    "name": "multi-byte",
    "description": "Recusandae odit et sunt exercitationem maiores sapiente.",
    "state": 1,
    "createdAt": "2019-11-28T09:54:46.2071398+00:00",
    "finishedAt": null
  },
  {
    "id": 9,
    "projectId": 0,
    "performerId": 106,
    "name": "Key",
    "description": "Voluptas rem eius perspiciatis ut sunt animi ratione temporibus magni.",
    "state": 0,
    "createdAt": "2018-05-03T20:11:07.116019+00:00",
    "finishedAt": null
  },
  {
    "id": 10,
    "projectId": 1,
    "performerId": 54,
    "name": "Berkshire invoice Small Rubber Salad",
    "description": "Et ut inventore dolorem et ullam vero ratione.",
    "state": 0,
    "createdAt": "2019-03-11T20:58:40.7771338+00:00",
    "finishedAt": null
  },
  {
    "id": 11,
    "projectId": 1,
    "performerId": 42,
    "name": "Saint Martin hack Small",
    "description": "Est possimus ut doloremque placeat.",
    "state": 0,
    "createdAt": "2020-10-14T22:25:18.8167922+00:00",
    "finishedAt": null
  },
  {
    "id": 12,
    "projectId": 2,
    "performerId": 83,
    "name": "Mongolia Ergonomic Rubber Chicken",
    "description": "Beatae debitis animi quam temporibus accusamus modi.",
    "state": 0,
    "createdAt": "2019-06-11T08:51:18.2170757+00:00",
    "finishedAt": null
  },
  {
    "id": 13,
    "projectId": 2,
    "performerId": 102,
    "name": "AI Forward",
    "description": "Eos nobis eius aut consequuntur ut ea ut eum.",
    "state": 3,
    "createdAt": "2018-11-14T21:13:14.2690262+00:00",
    "finishedAt": null
  },
  {
    "id": 14,
    "projectId": 2,
    "performerId": 35,
    "name": "Cambridgeshire Avon",
    "description": "Dignissimos nesciunt non omnis laborum.",
    "state": 0,
    "createdAt": "2018-06-28T20:16:51.1576247+00:00",
    "finishedAt": null
  },
  {
    "id": 15,
    "projectId": 2,
    "performerId": 90,
    "name": "Lari",
    "description": "Corrupti perferendis vel delectus placeat.",
    "state": 2,
    "createdAt": "2020-04-13T10:56:40.5107085+00:00",
    "finishedAt": "2022-01-06T09:32:02.311818+00:00"
  },
  {
    "id": 16,
    "projectId": 3,
    "performerId": 67,
    "name": "Moroccan Dirham",
    "description": "Esse ut recusandae.",
    "state": 1,
    "createdAt": "2018-04-14T10:36:37.514818+00:00",
    "finishedAt": null
  },
  {
    "id": 17,
    "projectId": 3,
    "performerId": 111,
    "name": "withdrawal",
    "description": "Commodi vero nobis harum deserunt.",
    "state": 3,
    "createdAt": "2019-05-05T00:02:48.5545881+00:00",
    "finishedAt": null
  },
  {
    "id": 18,
    "projectId": 3,
    "performerId": 62,
    "name": "Producer",
    "description": "Voluptatem omnis tempore accusantium minima et ut et magni.",
    "state": 3,
    "createdAt": "2020-04-21T06:21:46.0927893+00:00",
    "finishedAt": null
  },
  {
    "id": 19,
    "projectId": 3,
    "performerId": 97,
    "name": "Sweden Lebanese Pound Cambridgeshire",
    "description": "Sed at voluptates impedit.",
    "state": 3,
    "createdAt": "2019-06-20T20:09:47.3299605+00:00",
    "finishedAt": null
  },
  {
    "id": 20,
    "projectId": 3,
    "performerId": 100,
    "name": "yellow Fresh benchmark",
    "description": "In non dolores est dignissimos illum.",
    "state": 1,
    "createdAt": "2019-11-23T20:10:34.2574503+00:00",
    "finishedAt": null
  },
  {
    "id": 21,
    "projectId": 4,
    "performerId": 75,
    "name": "El Salvador GB",
    "description": "Qui fugit sunt in aliquam.",
    "state": 3,
    "createdAt": "2019-10-10T08:23:14.4459895+00:00",
    "finishedAt": null
  },
  {
    "id": 22,
    "projectId": 6,
    "performerId": 85,
    "name": "lime",
    "description": "Necessitatibus ut reprehenderit iusto omnis.",
    "state": 2,
    "createdAt": "2020-12-06T02:11:36.0384007+00:00",
    "finishedAt": "2021-07-02T20:02:32.8965817+00:00"
  },
  {
    "id": 23,
    "projectId": 6,
    "performerId": 37,
    "name": "explicit Lights",
    "description": "Aliquam aut atque atque sit illum dolor cum architecto natus.",
    "state": 0,
    "createdAt": "2020-11-07T11:23:26.6471684+00:00",
    "finishedAt": null
  },
  {
    "id": 24,
    "projectId": 6,
    "performerId": 80,
    "name": "Accountability Generic",
    "description": "Deleniti est qui repellendus qui dolorum eius est.",
    "state": 2,
    "createdAt": "2020-08-17T01:13:06.9943299+00:00",
    "finishedAt": "2021-03-30T00:51:54.3628103+00:00"
  },
  {
    "id": 25,
    "projectId": 6,
    "performerId": 60,
    "name": "mindshare",
    "description": "Est impedit molestias impedit et ipsam officiis.",
    "state": 3,
    "createdAt": "2018-12-06T14:23:30.8203648+00:00",
    "finishedAt": null
  },
  {
    "id": 26,
    "projectId": 6,
    "performerId": 70,
    "name": "sexy",
    "description": "Consequatur eius omnis dolore ut optio.",
    "state": 2,
    "createdAt": "2019-09-23T18:54:27.6081602+00:00",
    "finishedAt": "2021-11-01T13:15:04.3203331+00:00"
  },
  {
    "id": 27,
    "projectId": 6,
    "performerId": 112,
    "name": "hack Estonia invoice",
    "description": "Incidunt nesciunt similique repudiandae pariatur dolorem pariatur rerum nihil voluptate.",
    "state": 3,
    "createdAt": "2018-10-21T06:28:53.3593751+00:00",
    "finishedAt": null
  },
  {
    "id": 28,
    "projectId": 6,
    "performerId": 46,
    "name": "Auto Loan Account withdrawal",
    "description": "Accusantium ad nemo placeat debitis autem aut natus.",
    "state": 1,
    "createdAt": "2019-05-13T19:28:52.7916186+00:00",
    "finishedAt": null
  },
  {
    "id": 29,
    "projectId": 7,
    "performerId": 29,
    "name": "solid state maximize",
    "description": "Sit doloribus accusantium blanditiis veniam eum.",
    "state": 3,
    "createdAt": "2020-08-19T12:50:50.2731952+00:00",
    "finishedAt": null
  },
  {
    "id": 30,
    "projectId": 8,
    "performerId": 20,
    "name": "Diverse AGP",
    "description": "Ut temporibus placeat quia.",
    "state": 0,
    "createdAt": "2020-08-02T04:22:33.3786949+00:00",
    "finishedAt": null
  },
  {
    "id": 31,
    "projectId": 8,
    "performerId": 59,
    "name": "Assurance sensor Ergonomic Metal Chair",
    "description": "At totam quos et.",
    "state": 1,
    "createdAt": "2019-03-11T12:40:22.5656063+00:00",
    "finishedAt": null
  },
  {
    "id": 32,
    "projectId": 8,
    "performerId": 41,
    "name": "Accountability",
    "description": "Natus qui in qui est eligendi.",
    "state": 2,
    "createdAt": "2018-07-05T12:07:44.9236013+00:00",
    "finishedAt": "2021-07-04T19:12:14.6449298+00:00"
  },
  {
    "id": 33,
    "projectId": 8,
    "performerId": 41,
    "name": "interfaces CSS Principal",
    "description": "Animi dolorem quidem ea cumque.",
    "state": 1,
    "createdAt": "2019-08-06T17:38:56.4723135+00:00",
    "finishedAt": null
  },
  {
    "id": 34,
    "projectId": 9,
    "performerId": 113,
    "name": "XML",
    "description": "Laudantium sequi asperiores aspernatur eius molestiae tenetur adipisci quisquam.",
    "state": 3,
    "createdAt": "2018-04-14T18:25:29.0934943+00:00",
    "finishedAt": null
  },
  {
    "id": 35,
    "projectId": 9,
    "performerId": 25,
    "name": "Borders",
    "description": "Eum sit quisquam eum sequi.",
    "state": 1,
    "createdAt": "2020-12-10T16:40:30.1901596+00:00",
    "finishedAt": null
  },
  {
    "id": 36,
    "projectId": 9,
    "performerId": 50,
    "name": "Nigeria grow",
    "description": "Explicabo id amet et maxime non facilis.",
    "state": 1,
    "createdAt": "2018-02-10T23:44:01.5915537+00:00",
    "finishedAt": null
  },
  {
    "id": 37,
    "projectId": 9,
    "performerId": 109,
    "name": "Incredible Books & Books Ergonomic Rubber Chair",
    "description": "Dolor hic repudiandae fuga at consectetur ut debitis veritatis numquam.",
    "state": 3,
    "createdAt": "2018-02-22T15:12:13.7971022+00:00",
    "finishedAt": null
  },
  {
    "id": 38,
    "projectId": 9,
    "performerId": 69,
    "name": "Dobra Dynamic Wisconsin",
    "description": "Odio accusantium ipsam qui dolorum voluptatem nemo.",
    "state": 0,
    "createdAt": "2019-07-09T17:32:14.9816892+00:00",
    "finishedAt": null
  },
  {
    "id": 39,
    "projectId": 10,
    "performerId": 94,
    "name": "Shoes",
    "description": "Culpa necessitatibus sint fugit.",
    "state": 1,
    "createdAt": "2018-02-13T21:34:30.9180668+00:00",
    "finishedAt": null
  },
  {
    "id": 40,
    "projectId": 10,
    "performerId": 33,
    "name": "synergistic 24/365",
    "description": "Voluptate rem mollitia sed.",
    "state": 3,
    "createdAt": "2020-11-23T05:10:32.0023442+00:00",
    "finishedAt": null
  },
  {
    "id": 41,
    "projectId": 10,
    "performerId": 86,
    "name": "Centers lime",
    "description": "Nam et amet dignissimos doloribus vitae accusantium quia inventore sunt.",
    "state": 3,
    "createdAt": "2019-05-13T15:50:10.8072341+00:00",
    "finishedAt": null
  },
  {
    "id": 42,
    "projectId": 10,
    "performerId": 34,
    "name": "applications niches Michigan",
    "description": "Soluta in voluptatem dolores et laborum autem.",
    "state": 0,
    "createdAt": "2018-12-29T02:43:57.251862+00:00",
    "finishedAt": null
  },
  {
    "id": 43,
    "projectId": 10,
    "performerId": 96,
    "name": "Tokelau infrastructures enable",
    "description": "Delectus corrupti non eum sint iste possimus.",
    "state": 1,
    "createdAt": "2020-06-06T11:44:01.5017074+00:00",
    "finishedAt": null
  },
  {
    "id": 44,
    "projectId": 10,
    "performerId": 51,
    "name": "Sleek Fresh Chips",
    "description": "Modi quo soluta necessitatibus voluptatem laboriosam repudiandae voluptatem iusto non.",
    "state": 0,
    "createdAt": "2019-07-13T11:17:13.6327423+00:00",
    "finishedAt": null
  },
  {
    "id": 45,
    "projectId": 11,
    "performerId": 102,
    "name": "green Savings Account",
    "description": "Vero quia dignissimos facilis.",
    "state": 3,
    "createdAt": "2019-09-21T05:30:50.4779998+00:00",
    "finishedAt": null
  },
  {
    "id": 46,
    "projectId": 11,
    "performerId": 22,
    "name": "Drives",
    "description": "Iusto vero architecto laboriosam.",
    "state": 2,
    "createdAt": "2020-06-20T08:14:30.46747+00:00",
    "finishedAt": "2021-07-25T18:54:14.7996239+00:00"
  },
  {
    "id": 47,
    "projectId": 11,
    "performerId": 31,
    "name": "Tanzanian Shilling Berkshire",
    "description": "Commodi nihil enim qui voluptas qui reiciendis at molestias ducimus.",
    "state": 2,
    "createdAt": "2019-07-08T10:09:14.8614752+00:00",
    "finishedAt": "2021-02-17T05:43:24.8204827+00:00"
  },
  {
    "id": 48,
    "projectId": 11,
    "performerId": 62,
    "name": "turquoise Executive parsing",
    "description": "Perspiciatis at vero.",
    "state": 0,
    "createdAt": "2020-07-09T03:10:59.9055662+00:00",
    "finishedAt": null
  },
  {
    "id": 49,
    "projectId": 12,
    "performerId": 78,
    "name": "Tasty",
    "description": "Aliquam porro quia fugit.",
    "state": 1,
    "createdAt": "2019-09-09T04:19:43.2084533+00:00",
    "finishedAt": null
  },
  {
    "id": 50,
    "projectId": 12,
    "performerId": 78,
    "name": "homogeneous Island architect",
    "description": "Ea dolores voluptatibus laboriosam debitis praesentium sapiente sequi voluptate.",
    "state": 3,
    "createdAt": "2018-06-25T08:40:11.9961147+00:00",
    "finishedAt": null
  },
  {
    "id": 51,
    "projectId": 12,
    "performerId": 51,
    "name": "Beauty Bedfordshire SMTP",
    "description": "Vel tempore et sit sunt eligendi rerum voluptas.",
    "state": 3,
    "createdAt": "2018-03-09T15:12:54.570919+00:00",
    "finishedAt": null
  },
  {
    "id": 52,
    "projectId": 12,
    "performerId": 76,
    "name": "PCI",
    "description": "Et sapiente ipsa sit eaque.",
    "state": 1,
    "createdAt": "2020-02-04T21:50:04.4912442+00:00",
    "finishedAt": null
  },
  {
    "id": 53,
    "projectId": 12,
    "performerId": 64,
    "name": "SCSI",
    "description": "Voluptatibus eligendi quo animi libero a dignissimos reprehenderit laudantium occaecati.",
    "state": 0,
    "createdAt": "2020-10-08T17:42:06.587791+00:00",
    "finishedAt": null
  },
  {
    "id": 54,
    "projectId": 13,
    "performerId": 38,
    "name": "embrace red Investor",
    "description": "Laboriosam ea quia occaecati sunt.",
    "state": 2,
    "createdAt": "2020-05-20T00:20:10.8943461+00:00",
    "finishedAt": "2021-05-04T01:59:34.0695688+00:00"
  },
  {
    "id": 55,
    "projectId": 13,
    "performerId": 25,
    "name": "back-end",
    "description": "Ea adipisci quam vel at dolores occaecati dolore dignissimos.",
    "state": 2,
    "createdAt": "2019-06-19T02:34:44.2059796+00:00",
    "finishedAt": "2021-04-14T17:21:23.8008111+00:00"
  },
  {
    "id": 56,
    "projectId": 13,
    "performerId": 46,
    "name": "1080p UIC-Franc",
    "description": "Quasi excepturi quaerat.",
    "state": 2,
    "createdAt": "2020-02-07T19:12:45.9489675+00:00",
    "finishedAt": "2021-03-14T05:27:23.5048235+00:00"
  },
  {
    "id": 57,
    "projectId": 13,
    "performerId": 48,
    "name": "hacking",
    "description": "Et aliquam voluptate molestiae mollitia consectetur impedit.",
    "state": 0,
    "createdAt": "2019-11-04T01:47:06.959281+00:00",
    "finishedAt": null
  },
  {
    "id": 58,
    "projectId": 13,
    "performerId": 27,
    "name": "navigating South Dakota circuit",
    "description": "Quis ex quo quae.",
    "state": 2,
    "createdAt": "2020-04-03T16:59:49.1664066+00:00",
    "finishedAt": "2021-11-21T07:26:08.2727861+00:00"
  },
  {
    "id": 59,
    "projectId": 14,
    "performerId": 103,
    "name": "neutral Unbranded Steel Shoes",
    "description": "Eos aut laborum voluptatem quis voluptas cum.",
    "state": 1,
    "createdAt": "2018-02-13T12:49:54.6134497+00:00",
    "finishedAt": null
  },
  {
    "id": 60,
    "projectId": 14,
    "performerId": 63,
    "name": "Borders Solutions",
    "description": "Ratione ut ea dolorem.",
    "state": 1,
    "createdAt": "2019-09-06T02:42:09.0736411+00:00",
    "finishedAt": null
  },
  {
    "id": 61,
    "projectId": 14,
    "performerId": 77,
    "name": "synergies",
    "description": "Vel aut ut earum vero minima voluptatem dicta officia eaque.",
    "state": 1,
    "createdAt": "2020-10-23T09:58:15.0706328+00:00",
    "finishedAt": null
  },
  {
    "id": 62,
    "projectId": 14,
    "performerId": 31,
    "name": "Handmade Soft Car circuit",
    "description": "Non eligendi et nemo ut omnis voluptatem cupiditate error velit.",
    "state": 1,
    "createdAt": "2019-12-08T11:45:58.1360113+00:00",
    "finishedAt": null
  },
  {
    "id": 63,
    "projectId": 14,
    "performerId": 72,
    "name": "invoice Awesome",
    "description": "Quis laboriosam libero saepe repellat repellat iste.",
    "state": 2,
    "createdAt": "2019-10-22T00:28:38.6416798+00:00",
    "finishedAt": "2021-05-20T21:17:58.0128426+00:00"
  },
  {
    "id": 64,
    "projectId": 14,
    "performerId": 44,
    "name": "Accounts global Engineer",
    "description": "Odio excepturi excepturi esse esse.",
    "state": 1,
    "createdAt": "2018-10-14T22:40:18.6068066+00:00",
    "finishedAt": null
  },
  {
    "id": 65,
    "projectId": 15,
    "performerId": 29,
    "name": "withdrawal",
    "description": "Molestiae aliquid omnis esse ut dolor.",
    "state": 2,
    "createdAt": "2019-04-05T11:51:51.5057364+00:00",
    "finishedAt": "2021-12-02T04:06:49.2132132+00:00"
  },
  {
    "id": 66,
    "projectId": 16,
    "performerId": 29,
    "name": "payment conglomeration Rial Omani",
    "description": "Fugit doloribus omnis molestiae aliquam ratione ducimus ut illo.",
    "state": 1,
    "createdAt": "2020-02-05T13:45:59.3534926+00:00",
    "finishedAt": null
  },
  {
    "id": 67,
    "projectId": 16,
    "performerId": 77,
    "name": "programming payment",
    "description": "Non pariatur in mollitia ut.",
    "state": 2,
    "createdAt": "2020-02-06T08:20:24.8683329+00:00",
    "finishedAt": "2022-01-04T18:08:18.8034357+00:00"
  },
  {
    "id": 68,
    "projectId": 16,
    "performerId": 61,
    "name": "AI",
    "description": "Debitis quia blanditiis ratione molestiae molestias ut.",
    "state": 3,
    "createdAt": "2019-09-04T09:12:49.1823987+00:00",
    "finishedAt": null
  },
  {
    "id": 69,
    "projectId": 16,
    "performerId": 54,
    "name": "Avon Licensed Cotton Towels Concrete",
    "description": "Voluptatem deserunt dolor a.",
    "state": 1,
    "createdAt": "2018-03-16T11:08:30.7301094+00:00",
    "finishedAt": null
  },
  {
    "id": 70,
    "projectId": 17,
    "performerId": 60,
    "name": "lime",
    "description": "Accusantium est rem neque quis saepe.",
    "state": 0,
    "createdAt": "2019-02-02T15:27:34.0759471+00:00",
    "finishedAt": null
  },
  {
    "id": 71,
    "projectId": 17,
    "performerId": 48,
    "name": "Legacy Auto Loan Account B2B",
    "description": "Harum earum et ut rem.",
    "state": 2,
    "createdAt": "2019-05-05T18:14:41.9324459+00:00",
    "finishedAt": "2021-11-20T22:18:27.8342523+00:00"
  },
  {
    "id": 72,
    "projectId": 17,
    "performerId": 60,
    "name": "architect Buckinghamshire Belize Dollar",
    "description": "Non reprehenderit nulla quis.",
    "state": 2,
    "createdAt": "2019-03-28T13:32:29.6866006+00:00",
    "finishedAt": "2021-01-29T23:47:34.3118332+00:00"
  },
  {
    "id": 73,
    "projectId": 17,
    "performerId": 109,
    "name": "Concrete neural",
    "description": "Odit at saepe.",
    "state": 3,
    "createdAt": "2020-09-23T08:13:32.9455684+00:00",
    "finishedAt": null
  },
  {
    "id": 74,
    "projectId": 17,
    "performerId": 20,
    "name": "Tasty Concrete Tuna Vision-oriented",
    "description": "Inventore adipisci mollitia quas accusamus recusandae odio itaque aperiam.",
    "state": 3,
    "createdAt": "2018-01-22T23:29:33.6569449+00:00",
    "finishedAt": null
  },
  {
    "id": 75,
    "projectId": 17,
    "performerId": 61,
    "name": "Generic Money Market Account incubate",
    "description": "Magnam reiciendis voluptate non autem cumque eum autem.",
    "state": 2,
    "createdAt": "2020-01-23T13:27:50.9691497+00:00",
    "finishedAt": "2021-04-08T23:36:59.0489412+00:00"
  },
  {
    "id": 76,
    "projectId": 17,
    "performerId": 97,
    "name": "Garden",
    "description": "Ipsum esse a quasi.",
    "state": 0,
    "createdAt": "2019-08-16T15:58:17.2038785+00:00",
    "finishedAt": null
  },
  {
    "id": 77,
    "projectId": 17,
    "performerId": 34,
    "name": "Investor",
    "description": "Ut et ut qui rerum et explicabo itaque qui id.",
    "state": 0,
    "createdAt": "2019-05-15T02:09:53.696346+00:00",
    "finishedAt": null
  },
  {
    "id": 78,
    "projectId": 17,
    "performerId": 25,
    "name": "iterate SQL Club",
    "description": "Laborum officia dolor est nihil maxime quidem atque atque possimus.",
    "state": 1,
    "createdAt": "2020-01-22T12:29:36.9238933+00:00",
    "finishedAt": null
  },
  {
    "id": 79,
    "projectId": 18,
    "performerId": 27,
    "name": "Ergonomic Tools, Grocery & Jewelery",
    "description": "Facilis amet temporibus nemo.",
    "state": 3,
    "createdAt": "2020-12-20T19:48:23.8328131+00:00",
    "finishedAt": null
  },
  {
    "id": 80,
    "projectId": 18,
    "performerId": 81,
    "name": "back-end Regional",
    "description": "Molestias aliquam quasi eveniet.",
    "state": 1,
    "createdAt": "2020-01-04T07:18:22.2088511+00:00",
    "finishedAt": null
  },
  {
    "id": 81,
    "projectId": 18,
    "performerId": 85,
    "name": "actuating green conglomeration",
    "description": "Reiciendis molestias veritatis natus.",
    "state": 1,
    "createdAt": "2018-06-28T23:29:48.002975+00:00",
    "finishedAt": null
  },
  {
    "id": 82,
    "projectId": 18,
    "performerId": 92,
    "name": "European Monetary Unit (E.M.U.-6) JSON invoice",
    "description": "Cupiditate nihil sit.",
    "state": 2,
    "createdAt": "2019-06-29T03:24:37.6359162+00:00",
    "finishedAt": "2021-07-28T04:07:30.1680116+00:00"
  },
  {
    "id": 83,
    "projectId": 18,
    "performerId": 106,
    "name": "Sleek port revolutionize",
    "description": "Odio et amet quam sit.",
    "state": 1,
    "createdAt": "2019-02-18T05:22:49.6297177+00:00",
    "finishedAt": null
  },
  {
    "id": 84,
    "projectId": 18,
    "performerId": 64,
    "name": "web-readiness Tennessee",
    "description": "Mollitia incidunt eos provident accusamus aut nam sint quidem eos.",
    "state": 3,
    "createdAt": "2018-08-04T20:45:31.3802031+00:00",
    "finishedAt": null
  },
  {
    "id": 85,
    "projectId": 18,
    "performerId": 33,
    "name": "Incredible Ford",
    "description": "Quaerat et nihil et nisi est eaque necessitatibus.",
    "state": 0,
    "createdAt": "2019-08-21T12:13:09.4932261+00:00",
    "finishedAt": null
  },
  {
    "id": 86,
    "projectId": 19,
    "performerId": 33,
    "name": "Focused",
    "description": "Natus delectus tempore dolor adipisci qui.",
    "state": 2,
    "createdAt": "2018-05-01T08:18:00.4422519+00:00",
    "finishedAt": "2021-08-26T04:20:23.464819+00:00"
  },
  {
    "id": 87,
    "projectId": 19,
    "performerId": 51,
    "name": "open system",
    "description": "Animi adipisci laboriosam.",
    "state": 1,
    "createdAt": "2018-11-03T23:47:35.6937596+00:00",
    "finishedAt": null
  },
  {
    "id": 88,
    "projectId": 19,
    "performerId": 34,
    "name": "Savings Account Phased",
    "description": "Dolores similique aut consectetur autem voluptas et.",
    "state": 0,
    "createdAt": "2020-03-24T23:29:21.4624013+00:00",
    "finishedAt": null
  },
  {
    "id": 89,
    "projectId": 19,
    "performerId": 76,
    "name": "Configuration Saint Helena Pound Intelligent Wooden Tuna",
    "description": "Aut ipsam quas dolorum delectus.",
    "state": 1,
    "createdAt": "2019-10-26T16:03:13.6956935+00:00",
    "finishedAt": null
  },
  {
    "id": 90,
    "projectId": 19,
    "performerId": 109,
    "name": "ROI",
    "description": "Tempora aut cupiditate vero quia.",
    "state": 2,
    "createdAt": "2020-01-15T10:47:11.8314238+00:00",
    "finishedAt": "2021-11-22T17:36:38.9708863+00:00"
  },
  {
    "id": 91,
    "projectId": 19,
    "performerId": 59,
    "name": "Mexican Peso",
    "description": "Et eveniet accusantium ab atque.",
    "state": 3,
    "createdAt": "2018-06-28T07:04:58.9133177+00:00",
    "finishedAt": null
  },
  {
    "id": 92,
    "projectId": 20,
    "performerId": 36,
    "name": "Cambridgeshire Garden, Tools & Toys Denar",
    "description": "Facere fuga suscipit hic quia tempora.",
    "state": 3,
    "createdAt": "2018-03-17T00:01:33.1330467+00:00",
    "finishedAt": null
  },
  {
    "id": 93,
    "projectId": 20,
    "performerId": 57,
    "name": "platforms",
    "description": "Eveniet est unde deleniti iste odio quis.",
    "state": 1,
    "createdAt": "2019-12-26T17:12:09.0979006+00:00",
    "finishedAt": null
  },
  {
    "id": 94,
    "projectId": 20,
    "performerId": 32,
    "name": "Handmade Wooden Pizza redundant Fantastic Metal Hat",
    "description": "Ut qui eveniet ullam quaerat voluptatum voluptate.",
    "state": 1,
    "createdAt": "2019-07-06T03:29:08.6856243+00:00",
    "finishedAt": null
  },
  {
    "id": 95,
    "projectId": 20,
    "performerId": 82,
    "name": "Versatile",
    "description": "Totam ad aliquid.",
    "state": 3,
    "createdAt": "2020-03-16T06:29:39.9132633+00:00",
    "finishedAt": null
  },
  {
    "id": 96,
    "projectId": 20,
    "performerId": 97,
    "name": "generate utilisation",
    "description": "Sit dolor adipisci.",
    "state": 1,
    "createdAt": "2020-12-15T19:48:24.7833736+00:00",
    "finishedAt": null
  },
  {
    "id": 97,
    "projectId": 20,
    "performerId": 112,
    "name": "Estonia",
    "description": "Enim quo id inventore quia et dolorem voluptate cum quia.",
    "state": 1,
    "createdAt": "2019-12-10T10:47:48.388066+00:00",
    "finishedAt": null
  },
  {
    "id": 98,
    "projectId": 20,
    "performerId": 102,
    "name": "Investment Account",
    "description": "Odit provident eos aut minima rem doloribus exercitationem ut dolores.",
    "state": 2,
    "createdAt": "2019-08-06T16:49:41.6856752+00:00",
    "finishedAt": "2021-11-06T13:41:13.0479549+00:00"
  },
  {
    "id": 99,
    "projectId": 23,
    "performerId": 42,
    "name": "Ports",
    "description": "Voluptatum similique quia inventore illum itaque quam dolores eos laudantium.",
    "state": 0,
    "createdAt": "2019-12-22T12:53:00.4264539+00:00",
    "finishedAt": null
  },
  {
    "id": 100,
    "projectId": 23,
    "performerId": 54,
    "name": "Money Market Account Crescent",
    "description": "Officia repudiandae velit earum occaecati.",
    "state": 1,
    "createdAt": "2020-04-15T11:25:59.9449367+00:00",
    "finishedAt": null
  },
  {
    "id": 101,
    "projectId": 23,
    "performerId": 100,
    "name": "parsing",
    "description": "Delectus ut ipsa laudantium provident similique et autem.",
    "state": 0,
    "createdAt": "2020-12-10T13:27:01.5675143+00:00",
    "finishedAt": null
  },
  {
    "id": 102,
    "projectId": 23,
    "performerId": 99,
    "name": "systems TCP",
    "description": "Laborum rerum expedita quia sed ullam est.",
    "state": 1,
    "createdAt": "2018-07-05T15:27:43.6763791+00:00",
    "finishedAt": null
  },
  {
    "id": 103,
    "projectId": 23,
    "performerId": 50,
    "name": "Mountain e-business Utah",
    "description": "Natus occaecati numquam.",
    "state": 0,
    "createdAt": "2018-05-22T02:18:16.3232646+00:00",
    "finishedAt": null
  },
  {
    "id": 104,
    "projectId": 23,
    "performerId": 57,
    "name": "red Supervisor function",
    "description": "Nemo esse et dolorem voluptas qui sint sequi.",
    "state": 3,
    "createdAt": "2019-10-05T02:53:50.6923121+00:00",
    "finishedAt": null
  },
  {
    "id": 105,
    "projectId": 23,
    "performerId": 49,
    "name": "Arizona",
    "description": "Sapiente sapiente sunt.",
    "state": 3,
    "createdAt": "2019-01-07T09:25:02.8274462+00:00",
    "finishedAt": null
  },
  {
    "id": 106,
    "projectId": 23,
    "performerId": 24,
    "name": "International",
    "description": "Quidem ipsam voluptatum quia.",
    "state": 1,
    "createdAt": "2018-09-04T05:45:57.7424343+00:00",
    "finishedAt": null
  },
  {
    "id": 107,
    "projectId": 23,
    "performerId": 85,
    "name": "generating",
    "description": "Blanditiis ad sunt.",
    "state": 1,
    "createdAt": "2019-04-28T12:14:57.5898188+00:00",
    "finishedAt": null
  },
  {
    "id": 108,
    "projectId": 24,
    "performerId": 108,
    "name": "B2B",
    "description": "Provident consequatur ipsum.",
    "state": 2,
    "createdAt": "2020-09-02T21:08:49.032671+00:00",
    "finishedAt": "2021-06-25T05:10:33.0059427+00:00"
  },
  {
    "id": 109,
    "projectId": 24,
    "performerId": 42,
    "name": "online info-mediaries Central African Republic",
    "description": "Esse suscipit placeat.",
    "state": 0,
    "createdAt": "2020-08-26T17:56:09.7559215+00:00",
    "finishedAt": null
  },
  {
    "id": 110,
    "projectId": 24,
    "performerId": 92,
    "name": "Bedfordshire",
    "description": "Eaque magnam optio enim consequuntur.",
    "state": 0,
    "createdAt": "2018-04-13T14:18:37.9414178+00:00",
    "finishedAt": null
  },
  {
    "id": 111,
    "projectId": 24,
    "performerId": 64,
    "name": "deposit transform",
    "description": "Temporibus aliquam explicabo iste quos omnis sed id.",
    "state": 1,
    "createdAt": "2020-02-20T16:34:01.9164718+00:00",
    "finishedAt": null
  },
  {
    "id": 112,
    "projectId": 24,
    "performerId": 40,
    "name": "Technician real-time",
    "description": "Eligendi sunt numquam consectetur.",
    "state": 0,
    "createdAt": "2019-05-11T07:06:00.6479255+00:00",
    "finishedAt": null
  },
  {
    "id": 113,
    "projectId": 24,
    "performerId": 108,
    "name": "Ergonomic Granite invoice",
    "description": "Vel est assumenda atque porro explicabo ut et sed magnam.",
    "state": 3,
    "createdAt": "2020-01-03T21:20:26.4992768+00:00",
    "finishedAt": null
  },
  {
    "id": 114,
    "projectId": 24,
    "performerId": 49,
    "name": "Practical Rubber Towels Awesome Soft Salad",
    "description": "Deserunt voluptas numquam sed cum delectus similique.",
    "state": 3,
    "createdAt": "2019-03-23T05:34:24.0356639+00:00",
    "finishedAt": null
  },
  {
    "id": 115,
    "projectId": 24,
    "performerId": 93,
    "name": "Strategist Face to face Parks",
    "description": "Excepturi laudantium eum assumenda fuga.",
    "state": 1,
    "createdAt": "2018-03-02T23:36:24.5583636+00:00",
    "finishedAt": null
  },
  {
    "id": 116,
    "projectId": 24,
    "performerId": 100,
    "name": "Human Research radical",
    "description": "Dignissimos quis est saepe velit libero et optio blanditiis.",
    "state": 3,
    "createdAt": "2019-09-17T06:15:10.7923932+00:00",
    "finishedAt": null
  },
  {
    "id": 117,
    "projectId": 24,
    "performerId": 29,
    "name": "Checking Account",
    "description": "Aut dignissimos dolores quisquam.",
    "state": 0,
    "createdAt": "2018-05-13T18:34:52.3863671+00:00",
    "finishedAt": null
  },
  {
    "id": 118,
    "projectId": 25,
    "performerId": 93,
    "name": "program sensor Cambridgeshire",
    "description": "Quos dolorum ab neque sequi.",
    "state": 1,
    "createdAt": "2018-04-06T00:36:18.4203953+00:00",
    "finishedAt": null
  },
  {
    "id": 119,
    "projectId": 25,
    "performerId": 27,
    "name": "monitor",
    "description": "Repudiandae asperiores labore ipsam nostrum.",
    "state": 3,
    "createdAt": "2018-11-10T23:31:00.629857+00:00",
    "finishedAt": null
  },
  {
    "id": 120,
    "projectId": 25,
    "performerId": 39,
    "name": "synthesizing",
    "description": "Qui voluptas nulla veniam aspernatur saepe quia voluptate.",
    "state": 1,
    "createdAt": "2020-10-19T11:23:03.8568064+00:00",
    "finishedAt": null
  },
  {
    "id": 121,
    "projectId": 25,
    "performerId": 40,
    "name": "Music",
    "description": "Quae harum at eos quas ipsum quia enim.",
    "state": 2,
    "createdAt": "2018-05-23T07:51:13.9789696+00:00",
    "finishedAt": "2021-10-23T17:20:20.742877+00:00"
  },
  {
    "id": 122,
    "projectId": 26,
    "performerId": 105,
    "name": "Soft",
    "description": "Rerum labore et.",
    "state": 1,
    "createdAt": "2019-02-01T08:48:38.4580142+00:00",
    "finishedAt": null
  },
  {
    "id": 123,
    "projectId": 26,
    "performerId": 106,
    "name": "Beauty, Games & Computers Cliffs",
    "description": "Dolor ipsum eum est laboriosam tempore architecto.",
    "state": 2,
    "createdAt": "2018-07-19T07:20:00.814441+00:00",
    "finishedAt": "2022-01-07T11:48:38.6818431+00:00"
  },
  {
    "id": 124,
    "projectId": 26,
    "performerId": 65,
    "name": "Usability",
    "description": "Ea sed vel accusamus quia sit.",
    "state": 3,
    "createdAt": "2020-06-02T23:42:58.8105995+00:00",
    "finishedAt": null
  },
  {
    "id": 125,
    "projectId": 26,
    "performerId": 30,
    "name": "Buckinghamshire",
    "description": "Ut quia possimus suscipit perspiciatis tenetur maiores voluptas.",
    "state": 3,
    "createdAt": "2020-02-18T23:00:01.7543723+00:00",
    "finishedAt": null
  },
  {
    "id": 126,
    "projectId": 26,
    "performerId": 97,
    "name": "Health, Movies & Computers",
    "description": "Itaque officiis est.",
    "state": 3,
    "createdAt": "2018-10-01T17:16:22.7901217+00:00",
    "finishedAt": null
  },
  {
    "id": 127,
    "projectId": 26,
    "performerId": 65,
    "name": "Open-source Center user-facing",
    "description": "Voluptatum animi nihil et.",
    "state": 0,
    "createdAt": "2019-10-11T11:49:52.0959741+00:00",
    "finishedAt": null
  },
  {
    "id": 128,
    "projectId": 26,
    "performerId": 76,
    "name": "incentivize",
    "description": "Voluptatem et sunt eius nam.",
    "state": 3,
    "createdAt": "2018-08-19T10:50:12.1509165+00:00",
    "finishedAt": null
  },
  {
    "id": 129,
    "projectId": 26,
    "performerId": 92,
    "name": "hybrid Arkansas Rustic Soft Towels",
    "description": "Vero quia eos harum assumenda.",
    "state": 1,
    "createdAt": "2018-12-27T13:02:31.3437095+00:00",
    "finishedAt": null
  },
  {
    "id": 130,
    "projectId": 26,
    "performerId": 35,
    "name": "violet Sleek Rubber Table",
    "description": "Qui voluptatum voluptas error deleniti.",
    "state": 3,
    "createdAt": "2018-07-22T07:58:19.5286012+00:00",
    "finishedAt": null
  },
  {
    "id": 131,
    "projectId": 27,
    "performerId": 20,
    "name": "Loaf",
    "description": "Rerum laudantium inventore autem praesentium ducimus maiores quod exercitationem.",
    "state": 3,
    "createdAt": "2020-06-28T17:26:46.1781456+00:00",
    "finishedAt": null
  },
  {
    "id": 132,
    "projectId": 27,
    "performerId": 99,
    "name": "Kids & Shoes optimize",
    "description": "Exercitationem qui aperiam quia perspiciatis omnis.",
    "state": 3,
    "createdAt": "2018-11-07T00:57:40.0896382+00:00",
    "finishedAt": null
  },
  {
    "id": 133,
    "projectId": 27,
    "performerId": 106,
    "name": "Buckinghamshire Spurs",
    "description": "Et velit minus perspiciatis eum facilis esse optio vel culpa.",
    "state": 3,
    "createdAt": "2020-02-17T22:11:47.9815973+00:00",
    "finishedAt": null
  },
  {
    "id": 134,
    "projectId": 29,
    "performerId": 65,
    "name": "enterprise",
    "description": "Ut modi perferendis molestias doloremque.",
    "state": 1,
    "createdAt": "2020-08-17T00:57:35.1356188+00:00",
    "finishedAt": null
  },
  {
    "id": 135,
    "projectId": 29,
    "performerId": 80,
    "name": "Kina parsing",
    "description": "Et repudiandae dicta et deleniti.",
    "state": 0,
    "createdAt": "2020-07-15T12:46:35.947908+00:00",
    "finishedAt": null
  },
  {
    "id": 136,
    "projectId": 29,
    "performerId": 65,
    "name": "quantifying",
    "description": "Cupiditate magni accusantium eligendi sit consectetur quisquam eaque ex molestias.",
    "state": 3,
    "createdAt": "2018-04-04T09:07:46.906424+00:00",
    "finishedAt": null
  },
  {
    "id": 137,
    "projectId": 29,
    "performerId": 88,
    "name": "Music, Tools & Toys content-based Soft",
    "description": "Eaque officia ut ut dolores est quod consequatur.",
    "state": 3,
    "createdAt": "2020-09-05T12:29:20.662041+00:00",
    "finishedAt": null
  },
  {
    "id": 138,
    "projectId": 29,
    "performerId": 97,
    "name": "Personal Loan Account New Hampshire Yuan Renminbi",
    "description": "Et optio laudantium blanditiis.",
    "state": 1,
    "createdAt": "2020-08-02T15:38:52.9947723+00:00",
    "finishedAt": null
  },
  {
    "id": 139,
    "projectId": 29,
    "performerId": 44,
    "name": "SCSI bottom-line Soft",
    "description": "Autem minima sunt est qui nostrum consequuntur explicabo doloremque.",
    "state": 3,
    "createdAt": "2019-12-07T18:55:04.0553774+00:00",
    "finishedAt": null
  },
  {
    "id": 140,
    "projectId": 29,
    "performerId": 82,
    "name": "Home Loan Account solid state",
    "description": "Vitae maiores recusandae quas non at omnis autem ab.",
    "state": 0,
    "createdAt": "2019-05-28T15:48:35.4660531+00:00",
    "finishedAt": null
  },
  {
    "id": 141,
    "projectId": 29,
    "performerId": 90,
    "name": "e-markets",
    "description": "Nihil voluptate suscipit commodi sed ut praesentium.",
    "state": 1,
    "createdAt": "2018-10-03T07:17:54.0578299+00:00",
    "finishedAt": null
  },
  {
    "id": 142,
    "projectId": 30,
    "performerId": 85,
    "name": "Assimilated interface",
    "description": "Et quisquam delectus id suscipit.",
    "state": 0,
    "createdAt": "2020-11-26T05:56:57.2747604+00:00",
    "finishedAt": null
  },
  {
    "id": 143,
    "projectId": 30,
    "performerId": 76,
    "name": "Burgs Ergonomic Cotton Shoes Roads",
    "description": "Qui ipsa ipsum quis sit ex quibusdam pariatur aliquam.",
    "state": 3,
    "createdAt": "2020-04-22T07:47:43.3921284+00:00",
    "finishedAt": null
  },
  {
    "id": 144,
    "projectId": 32,
    "performerId": 93,
    "name": "deposit migration",
    "description": "Ipsum neque est omnis voluptate non est.",
    "state": 0,
    "createdAt": "2018-01-30T13:10:25.7881864+00:00",
    "finishedAt": null
  },
  {
    "id": 145,
    "projectId": 32,
    "performerId": 69,
    "name": "Baby & Tools Engineer Investment Account",
    "description": "Unde earum est.",
    "state": 3,
    "createdAt": "2018-02-21T20:16:00.5504845+00:00",
    "finishedAt": null
  },
  {
    "id": 146,
    "projectId": 32,
    "performerId": 96,
    "name": "communities Facilitator",
    "description": "Cum sunt rerum.",
    "state": 1,
    "createdAt": "2019-04-12T18:08:56.0749199+00:00",
    "finishedAt": null
  },
  {
    "id": 147,
    "projectId": 32,
    "performerId": 62,
    "name": "extranet",
    "description": "Incidunt omnis ut voluptatem architecto asperiores explicabo.",
    "state": 0,
    "createdAt": "2020-08-30T01:02:56.9645062+00:00",
    "finishedAt": null
  },
  {
    "id": 148,
    "projectId": 32,
    "performerId": 61,
    "name": "approach Directives Money Market Account",
    "description": "Sequi perspiciatis alias fugiat aperiam distinctio qui tempora similique.",
    "state": 1,
    "createdAt": "2020-09-24T03:06:21.9581147+00:00",
    "finishedAt": null
  },
  {
    "id": 149,
    "projectId": 35,
    "performerId": 71,
    "name": "24/7 Legacy",
    "description": "Aut praesentium quas rerum earum sed.",
    "state": 3,
    "createdAt": "2019-06-15T08:38:40.3385896+00:00",
    "finishedAt": null
  },
  {
    "id": 150,
    "projectId": 36,
    "performerId": 52,
    "name": "index Administrator Track",
    "description": "Sint id possimus temporibus eligendi tempora non.",
    "state": 0,
    "createdAt": "2019-10-24T04:56:46.0706851+00:00",
    "finishedAt": null
  },
  {
    "id": 151,
    "projectId": 36,
    "performerId": 101,
    "name": "Tasty Cotton Hat connect",
    "description": "Ipsa dolorem sed.",
    "state": 1,
    "createdAt": "2019-12-16T01:37:44.5574394+00:00",
    "finishedAt": null
  },
  {
    "id": 152,
    "projectId": 36,
    "performerId": 54,
    "name": "experiences",
    "description": "Doloremque consectetur debitis enim cumque porro consectetur quo.",
    "state": 0,
    "createdAt": "2020-03-20T14:51:20.9458209+00:00",
    "finishedAt": null
  },
  {
    "id": 153,
    "projectId": 36,
    "performerId": 108,
    "name": "Operations bypass Points",
    "description": "Nulla excepturi est velit.",
    "state": 3,
    "createdAt": "2019-11-04T10:05:30.9594264+00:00",
    "finishedAt": null
  },
  {
    "id": 154,
    "projectId": 36,
    "performerId": 73,
    "name": "dynamic",
    "description": "Quo numquam minima quisquam tempore vel.",
    "state": 3,
    "createdAt": "2019-04-12T00:02:39.4188533+00:00",
    "finishedAt": null
  },
  {
    "id": 155,
    "projectId": 37,
    "performerId": 60,
    "name": "Road HDD",
    "description": "Sapiente ad dolores.",
    "state": 0,
    "createdAt": "2020-06-24T03:20:35.6407431+00:00",
    "finishedAt": null
  },
  {
    "id": 156,
    "projectId": 37,
    "performerId": 48,
    "name": "Refined Metal Bacon",
    "description": "Id non fugiat qui.",
    "state": 1,
    "createdAt": "2020-04-10T10:22:31.4861965+00:00",
    "finishedAt": null
  },
  {
    "id": 157,
    "projectId": 37,
    "performerId": 24,
    "name": "Generic drive",
    "description": "Incidunt quia aut reiciendis et autem aspernatur et et sed.",
    "state": 3,
    "createdAt": "2020-10-04T14:54:33.3331597+00:00",
    "finishedAt": null
  },
  {
    "id": 158,
    "projectId": 38,
    "performerId": 100,
    "name": "Rustic",
    "description": "Necessitatibus laborum voluptatibus est provident nam voluptatem tempora.",
    "state": 3,
    "createdAt": "2020-10-04T22:51:03.0580125+00:00",
    "finishedAt": null
  },
  {
    "id": 159,
    "projectId": 38,
    "performerId": 48,
    "name": "optical",
    "description": "Qui culpa quibusdam rerum id dolor adipisci neque voluptate sit.",
    "state": 0,
    "createdAt": "2018-06-03T10:44:54.3386347+00:00",
    "finishedAt": null
  },
  {
    "id": 160,
    "projectId": 38,
    "performerId": 66,
    "name": "Ergonomic",
    "description": "Laboriosam consequatur ducimus culpa inventore officiis eum.",
    "state": 1,
    "createdAt": "2019-05-04T18:21:46.3597683+00:00",
    "finishedAt": null
  },
  {
    "id": 161,
    "projectId": 38,
    "performerId": 24,
    "name": "Villages interface proactive",
    "description": "Et temporibus dignissimos quia facilis.",
    "state": 0,
    "createdAt": "2019-09-08T20:31:46.9899933+00:00",
    "finishedAt": null
  },
  {
    "id": 162,
    "projectId": 39,
    "performerId": 72,
    "name": "Distributed",
    "description": "Ut veniam repellat quod assumenda est.",
    "state": 2,
    "createdAt": "2019-03-12T11:55:07.9800661+00:00",
    "finishedAt": "2021-04-14T03:20:28.9289947+00:00"
  },
  {
    "id": 163,
    "projectId": 39,
    "performerId": 26,
    "name": "Lead Rue Agent",
    "description": "Consequatur amet unde.",
    "state": 2,
    "createdAt": "2018-04-08T14:03:58.4393264+00:00",
    "finishedAt": "2021-09-16T22:11:30.5949784+00:00"
  },
  {
    "id": 164,
    "projectId": 39,
    "performerId": 77,
    "name": "intangible",
    "description": "Est sed vel est aspernatur esse aperiam cupiditate mollitia.",
    "state": 2,
    "createdAt": "2020-03-09T06:11:39.0179724+00:00",
    "finishedAt": "2021-07-11T08:42:57.8329456+00:00"
  },
  {
    "id": 165,
    "projectId": 39,
    "performerId": 23,
    "name": "Handcrafted Granite Towels Paradigm",
    "description": "Et adipisci quam alias rerum et a veritatis.",
    "state": 0,
    "createdAt": "2020-08-20T14:04:54.3744506+00:00",
    "finishedAt": null
  },
  {
    "id": 166,
    "projectId": 39,
    "performerId": 104,
    "name": "Directives",
    "description": "Molestiae ipsum cumque ducimus.",
    "state": 1,
    "createdAt": "2020-02-03T15:29:30.1665977+00:00",
    "finishedAt": null
  },
  {
    "id": 167,
    "projectId": 39,
    "performerId": 67,
    "name": "demand-driven Handcrafted Plastic Bike",
    "description": "Architecto molestiae reprehenderit assumenda.",
    "state": 1,
    "createdAt": "2020-07-28T09:20:15.7163696+00:00",
    "finishedAt": null
  },
  {
    "id": 168,
    "projectId": 40,
    "performerId": 93,
    "name": "panel",
    "description": "Aut quas voluptate et autem animi.",
    "state": 0,
    "createdAt": "2020-06-25T19:19:46.3849399+00:00",
    "finishedAt": null
  },
  {
    "id": 169,
    "projectId": 40,
    "performerId": 79,
    "name": "neutral primary",
    "description": "Ipsum eos est beatae voluptatem assumenda consequatur est consequatur.",
    "state": 2,
    "createdAt": "2019-02-23T04:52:32.0497772+00:00",
    "finishedAt": "2021-01-17T06:49:11.2789666+00:00"
  },
  {
    "id": 170,
    "projectId": 40,
    "performerId": 110,
    "name": "Money Market Account",
    "description": "Sequi omnis distinctio aperiam non fuga aperiam id deleniti ad.",
    "state": 1,
    "createdAt": "2020-08-21T07:46:08.2119128+00:00",
    "finishedAt": null
  },
  {
    "id": 171,
    "projectId": 40,
    "performerId": 82,
    "name": "Facilitator RSS",
    "description": "Sunt id ipsa aut nihil.",
    "state": 1,
    "createdAt": "2018-02-14T01:07:28.5348454+00:00",
    "finishedAt": null
  },
  {
    "id": 172,
    "projectId": 40,
    "performerId": 98,
    "name": "Incredible Granite Chair",
    "description": "Dolor rerum ut et laboriosam ut.",
    "state": 3,
    "createdAt": "2019-07-21T05:56:48.7028146+00:00",
    "finishedAt": null
  },
  {
    "id": 173,
    "projectId": 41,
    "performerId": 50,
    "name": "Architect reboot",
    "description": "Et accusantium dolorum sequi odit expedita quo.",
    "state": 0,
    "createdAt": "2020-04-11T18:37:13.4628933+00:00",
    "finishedAt": null
  },
  {
    "id": 174,
    "projectId": 41,
    "performerId": 81,
    "name": "quantifying",
    "description": "Amet velit quidem quibusdam alias unde et aut dolorem officia.",
    "state": 1,
    "createdAt": "2018-11-15T02:48:00.3275708+00:00",
    "finishedAt": null
  },
  {
    "id": 175,
    "projectId": 42,
    "performerId": 42,
    "name": "sensor",
    "description": "Repellendus et sed.",
    "state": 1,
    "createdAt": "2019-04-15T21:20:36.9119609+00:00",
    "finishedAt": null
  },
  {
    "id": 176,
    "projectId": 42,
    "performerId": 24,
    "name": "systems",
    "description": "Optio praesentium vel et consequuntur magni.",
    "state": 3,
    "createdAt": "2019-04-06T17:32:44.2155688+00:00",
    "finishedAt": null
  },
  {
    "id": 177,
    "projectId": 42,
    "performerId": 50,
    "name": "Usability Open-source",
    "description": "Rerum sint totam.",
    "state": 1,
    "createdAt": "2019-12-10T02:06:41.8094146+00:00",
    "finishedAt": null
  },
  {
    "id": 178,
    "projectId": 42,
    "performerId": 82,
    "name": "Agent",
    "description": "Adipisci cumque molestiae.",
    "state": 1,
    "createdAt": "2018-02-22T05:26:25.4528501+00:00",
    "finishedAt": null
  },
  {
    "id": 179,
    "projectId": 43,
    "performerId": 33,
    "name": "Industrial",
    "description": "Aut ullam sit est.",
    "state": 3,
    "createdAt": "2018-06-25T14:26:46.0894073+00:00",
    "finishedAt": null
  },
  {
    "id": 180,
    "projectId": 43,
    "performerId": 40,
    "name": "Small Steel Ball Organized Rustic",
    "description": "Quas officia aut ut iste fuga autem facilis.",
    "state": 1,
    "createdAt": "2018-06-21T11:50:16.2825641+00:00",
    "finishedAt": null
  },
  {
    "id": 181,
    "projectId": 43,
    "performerId": 50,
    "name": "enhance multimedia",
    "description": "Consequuntur quae asperiores quia deleniti perspiciatis.",
    "state": 0,
    "createdAt": "2018-08-12T23:37:21.1405829+00:00",
    "finishedAt": null
  },
  {
    "id": 182,
    "projectId": 43,
    "performerId": 59,
    "name": "Refined Granite Table Auto Loan Account",
    "description": "Laudantium voluptatem inventore modi neque quasi.",
    "state": 2,
    "createdAt": "2019-09-05T06:15:04.7889615+00:00",
    "finishedAt": "2021-08-29T06:35:58.9833672+00:00"
  },
  {
    "id": 183,
    "projectId": 43,
    "performerId": 80,
    "name": "Automotive, Baby & Books Home Loan Account benchmark",
    "description": "Placeat ea cumque quia iusto.",
    "state": 3,
    "createdAt": "2019-12-20T09:35:59.4758378+00:00",
    "finishedAt": null
  },
  {
    "id": 184,
    "projectId": 43,
    "performerId": 109,
    "name": "exploit grey Refined Fresh Keyboard",
    "description": "Ipsum aut fuga.",
    "state": 1,
    "createdAt": "2019-11-01T22:11:29.8689748+00:00",
    "finishedAt": null
  },
  {
    "id": 185,
    "projectId": 43,
    "performerId": 55,
    "name": "parsing contextually-based Handmade Metal Pants",
    "description": "Est quo est quisquam voluptatibus eligendi itaque rerum consequuntur maxime.",
    "state": 2,
    "createdAt": "2020-03-05T11:14:01.2617707+00:00",
    "finishedAt": "2021-01-30T08:50:49.0823408+00:00"
  },
  {
    "id": 186,
    "projectId": 44,
    "performerId": 43,
    "name": "indigo card",
    "description": "Consequatur quisquam aliquid.",
    "state": 1,
    "createdAt": "2018-08-01T12:29:38.9438882+00:00",
    "finishedAt": null
  },
  {
    "id": 187,
    "projectId": 44,
    "performerId": 33,
    "name": "Buckinghamshire capacitor Cotton",
    "description": "Ducimus doloribus non praesentium libero.",
    "state": 3,
    "createdAt": "2020-02-15T01:55:33.9567632+00:00",
    "finishedAt": null
  },
  {
    "id": 188,
    "projectId": 44,
    "performerId": 23,
    "name": "Sports & Automotive",
    "description": "Ab rerum quisquam doloribus autem et aut eligendi iusto quos.",
    "state": 0,
    "createdAt": "2020-02-09T11:28:31.0125268+00:00",
    "finishedAt": null
  },
  {
    "id": 189,
    "projectId": 44,
    "performerId": 102,
    "name": "compressing application",
    "description": "Voluptas ut cumque fugiat voluptatem recusandae ut est dolores.",
    "state": 3,
    "createdAt": "2019-06-20T00:18:47.7901552+00:00",
    "finishedAt": null
  },
  {
    "id": 190,
    "projectId": 44,
    "performerId": 82,
    "name": "strategize",
    "description": "Ut perferendis ut accusantium quia asperiores laborum cupiditate est nesciunt.",
    "state": 0,
    "createdAt": "2018-11-30T17:04:32.1822194+00:00",
    "finishedAt": null
  },
  {
    "id": 191,
    "projectId": 44,
    "performerId": 34,
    "name": "sky blue",
    "description": "Nesciunt aut ut.",
    "state": 2,
    "createdAt": "2021-01-04T08:21:58.7960004+00:00",
    "finishedAt": "2021-01-25T01:39:36.4605944+00:00"
  },
  {
    "id": 192,
    "projectId": 44,
    "performerId": 111,
    "name": "application Texas",
    "description": "Qui autem adipisci est.",
    "state": 3,
    "createdAt": "2019-04-26T23:55:14.0456435+00:00",
    "finishedAt": null
  },
  {
    "id": 193,
    "projectId": 45,
    "performerId": 89,
    "name": "auxiliary",
    "description": "Sed voluptas eum soluta praesentium.",
    "state": 3,
    "createdAt": "2019-07-10T22:48:17.0447004+00:00",
    "finishedAt": null
  },
  {
    "id": 194,
    "projectId": 45,
    "performerId": 73,
    "name": "asymmetric",
    "description": "Facilis officiis facere vitae.",
    "state": 3,
    "createdAt": "2020-02-01T15:22:12.0692419+00:00",
    "finishedAt": null
  },
  {
    "id": 195,
    "projectId": 46,
    "performerId": 55,
    "name": "portals task-force",
    "description": "Est velit rerum dolorum assumenda.",
    "state": 0,
    "createdAt": "2019-07-06T14:50:28.5459121+00:00",
    "finishedAt": null
  },
  {
    "id": 196,
    "projectId": 46,
    "performerId": 51,
    "name": "Rubber Auto Loan Account parallelism",
    "description": "Veritatis ut doloribus sed dolores dolores provident aliquam sint alias.",
    "state": 0,
    "createdAt": "2020-08-18T01:36:13.6905633+00:00",
    "finishedAt": null
  },
  {
    "id": 197,
    "projectId": 46,
    "performerId": 51,
    "name": "SAS web-enabled",
    "description": "Eos sint expedita aut reiciendis porro.",
    "state": 1,
    "createdAt": "2019-01-13T23:01:30.6913403+00:00",
    "finishedAt": null
  },
  {
    "id": 198,
    "projectId": 46,
    "performerId": 42,
    "name": "enhance Junction",
    "description": "Nihil qui dicta sint officia ex.",
    "state": 3,
    "createdAt": "2018-02-27T19:51:08.1302755+00:00",
    "finishedAt": null
  },
  {
    "id": 199,
    "projectId": 46,
    "performerId": 93,
    "name": "capacitor",
    "description": "Voluptatem ut et fugiat sit incidunt sint omnis et et.",
    "state": 2,
    "createdAt": "2019-03-04T05:08:36.3316437+00:00",
    "finishedAt": "2021-08-22T22:27:42.36848+00:00"
  },
  {
    "id": 200,
    "projectId": 46,
    "performerId": 57,
    "name": "1080p Fantastic Wooden Pizza cultivate",
    "description": "Nesciunt cumque non dolor delectus rerum enim.",
    "state": 1,
    "createdAt": "2019-05-16T05:58:00.1703217+00:00",
    "finishedAt": null
  },
  {
    "id": 201,
    "projectId": 46,
    "performerId": 99,
    "name": "back up",
    "description": "Amet tempore eius est ut.",
    "state": 1,
    "createdAt": "2018-02-21T16:09:04.2881841+00:00",
    "finishedAt": null
  },
  {
    "id": 202,
    "projectId": 46,
    "performerId": 108,
    "name": "Incredible Fresh Computer",
    "description": "Fuga quis tempore et corporis id vel voluptatibus mollitia et.",
    "state": 2,
    "createdAt": "2018-10-28T14:22:55.8148974+00:00",
    "finishedAt": "2021-05-29T14:44:51.5701035+00:00"
  },
  {
    "id": 203,
    "projectId": 46,
    "performerId": 105,
    "name": "Supervisor Unbranded Concrete Keyboard",
    "description": "Culpa adipisci harum veniam nisi.",
    "state": 0,
    "createdAt": "2020-12-18T04:57:35.7506614+00:00",
    "finishedAt": null
  },
  {
    "id": 204,
    "projectId": 46,
    "performerId": 95,
    "name": "Cyprus",
    "description": "Vitae nihil hic qui vero labore ab ut tempora odio.",
    "state": 0,
    "createdAt": "2019-02-03T19:01:42.2064091+00:00",
    "finishedAt": null
  },
  {
    "id": 205,
    "projectId": 48,
    "performerId": 107,
    "name": "array online Supervisor",
    "description": "Temporibus consequuntur eum at recusandae praesentium.",
    "state": 3,
    "createdAt": "2019-08-11T15:30:11.7314572+00:00",
    "finishedAt": null
  },
  {
    "id": 206,
    "projectId": 48,
    "performerId": 74,
    "name": "Berkshire",
    "description": "Eius soluta ut adipisci quidem vel error qui nesciunt sit.",
    "state": 2,
    "createdAt": "2018-06-06T19:55:40.1968435+00:00",
    "finishedAt": "2021-10-09T00:20:11.1016742+00:00"
  },
  {
    "id": 207,
    "projectId": 49,
    "performerId": 35,
    "name": "Viaduct Ergonomic Wooden Tuna",
    "description": "Nostrum voluptatibus ipsum.",
    "state": 1,
    "createdAt": "2018-06-29T18:54:43.4676928+00:00",
    "finishedAt": null
  },
  {
    "id": 208,
    "projectId": 49,
    "performerId": 113,
    "name": "South Carolina Wooden",
    "description": "Et vel qui tempora nemo tempora quo.",
    "state": 3,
    "createdAt": "2020-10-31T09:20:22.0454276+00:00",
    "finishedAt": null
  },
  {
    "id": 209,
    "projectId": 49,
    "performerId": 53,
    "name": "Gorgeous Cotton Ball",
    "description": "Omnis harum cum non laudantium delectus harum cumque nobis.",
    "state": 0,
    "createdAt": "2020-12-20T17:56:38.6394054+00:00",
    "finishedAt": null
  },
  {
    "id": 210,
    "projectId": 49,
    "performerId": 89,
    "name": "Generic",
    "description": "Voluptatum voluptas aut odio quia tempora dolor.",
    "state": 3,
    "createdAt": "2019-07-15T19:34:39.3563763+00:00",
    "finishedAt": null
  },
  {
    "id": 211,
    "projectId": 49,
    "performerId": 50,
    "name": "Gorgeous Frozen Soap Buckinghamshire Valley",
    "description": "Mollitia id ut illum nam dolores tempore.",
    "state": 1,
    "createdAt": "2020-10-20T23:54:23.5988748+00:00",
    "finishedAt": null
  },
  {
    "id": 212,
    "projectId": 49,
    "performerId": 87,
    "name": "Avenue Cotton Lane",
    "description": "Non inventore necessitatibus commodi exercitationem ut velit perferendis voluptatem sunt.",
    "state": 3,
    "createdAt": "2020-03-22T01:19:06.3781522+00:00",
    "finishedAt": null
  },
  {
    "id": 213,
    "projectId": 49,
    "performerId": 43,
    "name": "Regional",
    "description": "Veniam dolorem a voluptatem id aut consequatur.",
    "state": 2,
    "createdAt": "2020-09-05T20:10:19.0979508+00:00",
    "finishedAt": "2021-03-05T09:51:34.6495305+00:00"
  },
  {
    "id": 214,
    "projectId": 49,
    "performerId": 64,
    "name": "orchestrate",
    "description": "Est sed quo dolor cupiditate voluptatem vitae distinctio molestiae id.",
    "state": 0,
    "createdAt": "2018-03-22T06:41:26.5525272+00:00",
    "finishedAt": null
  },
  {
    "id": 215,
    "projectId": 49,
    "performerId": 37,
    "name": "green GB Frozen",
    "description": "Quis iste quis tempora iste doloremque cum sint saepe.",
    "state": 3,
    "createdAt": "2018-05-22T18:10:00.3355655+00:00",
    "finishedAt": null
  },
  {
    "id": 216,
    "projectId": 50,
    "performerId": 88,
    "name": "Diverse Small Granite Tuna ubiquitous",
    "description": "Cum sit ut.",
    "state": 3,
    "createdAt": "2020-12-18T12:54:44.19202+00:00",
    "finishedAt": null
  },
  {
    "id": 217,
    "projectId": 50,
    "performerId": 87,
    "name": "e-commerce Compatible New Caledonia",
    "description": "Eius quae animi voluptate.",
    "state": 1,
    "createdAt": "2018-04-20T09:28:44.7737185+00:00",
    "finishedAt": null
  },
  {
    "id": 218,
    "projectId": 50,
    "performerId": 35,
    "name": "Usability Functionality",
    "description": "Ut quis consectetur aut nulla velit dolores.",
    "state": 2,
    "createdAt": "2019-10-25T22:39:23.1778122+00:00",
    "finishedAt": "2021-03-01T18:01:03.6003118+00:00"
  },
  {
    "id": 219,
    "projectId": 50,
    "performerId": 62,
    "name": "Ergonomic Rubber Keyboard payment virtual",
    "description": "Est molestias consequuntur sed et repellendus vero.",
    "state": 2,
    "createdAt": "2018-07-10T21:25:40.2163721+00:00",
    "finishedAt": "2021-12-18T20:02:59.7202429+00:00"
  },
  {
    "id": 220,
    "projectId": 50,
    "performerId": 92,
    "name": "cross-platform JSON",
    "description": "Repellendus quo est rerum qui sed blanditiis quas.",
    "state": 1,
    "createdAt": "2020-04-12T17:43:01.8712639+00:00",
    "finishedAt": null
  },
  {
    "id": 221,
    "projectId": 51,
    "performerId": 60,
    "name": "Solutions",
    "description": "Eos et cum reiciendis fuga quidem similique.",
    "state": 1,
    "createdAt": "2018-08-19T15:34:59.8387891+00:00",
    "finishedAt": null
  },
  {
    "id": 222,
    "projectId": 51,
    "performerId": 44,
    "name": "compress Automotive, Toys & Industrial Strategist",
    "description": "Cumque et velit voluptas suscipit autem ea fuga.",
    "state": 2,
    "createdAt": "2019-07-02T02:59:10.3782973+00:00",
    "finishedAt": "2021-03-25T03:25:16.835101+00:00"
  },
  {
    "id": 223,
    "projectId": 51,
    "performerId": 20,
    "name": "Assistant blue Unbranded Granite Cheese",
    "description": "Asperiores et omnis.",
    "state": 0,
    "createdAt": "2020-04-15T09:41:07.0449633+00:00",
    "finishedAt": null
  },
  {
    "id": 224,
    "projectId": 52,
    "performerId": 21,
    "name": "AI Coordinator",
    "description": "Enim incidunt consequatur fuga.",
    "state": 3,
    "createdAt": "2020-11-09T16:48:13.814086+00:00",
    "finishedAt": null
  },
  {
    "id": 225,
    "projectId": 52,
    "performerId": 92,
    "name": "Tasty Soft Shoes Senior",
    "description": "Eveniet optio fuga omnis error dicta.",
    "state": 0,
    "createdAt": "2019-05-29T18:07:50.1737419+00:00",
    "finishedAt": null
  },
  {
    "id": 226,
    "projectId": 52,
    "performerId": 93,
    "name": "Cotton Architect",
    "description": "Omnis quo molestiae aut porro perferendis sed aut asperiores eum.",
    "state": 3,
    "createdAt": "2020-06-03T13:38:07.9994313+00:00",
    "finishedAt": null
  },
  {
    "id": 227,
    "projectId": 52,
    "performerId": 29,
    "name": "convergence optimal",
    "description": "Maxime ratione laudantium ut quidem pariatur.",
    "state": 3,
    "createdAt": "2019-01-11T10:02:15.6826375+00:00",
    "finishedAt": null
  },
  {
    "id": 228,
    "projectId": 54,
    "performerId": 89,
    "name": "Rustic Estate Bahraini Dinar",
    "description": "Sunt quaerat laboriosam doloribus sapiente ut soluta ut eligendi earum.",
    "state": 0,
    "createdAt": "2018-11-20T22:55:08.435159+00:00",
    "finishedAt": null
  },
  {
    "id": 229,
    "projectId": 54,
    "performerId": 85,
    "name": "Associate Refined Plastic Pants",
    "description": "Voluptatem tempora porro voluptatem doloremque ipsam fugiat ipsam mollitia.",
    "state": 3,
    "createdAt": "2019-01-28T07:10:40.6532023+00:00",
    "finishedAt": null
  },
  {
    "id": 230,
    "projectId": 54,
    "performerId": 31,
    "name": "payment Planner Program",
    "description": "Aut velit eligendi eum cum.",
    "state": 0,
    "createdAt": "2019-03-19T07:56:07.190152+00:00",
    "finishedAt": null
  },
  {
    "id": 231,
    "projectId": 54,
    "performerId": 80,
    "name": "channels",
    "description": "Dolore fugit et officia vero fuga sed ab quae.",
    "state": 0,
    "createdAt": "2018-06-17T02:34:39.7073172+00:00",
    "finishedAt": null
  },
  {
    "id": 232,
    "projectId": 54,
    "performerId": 58,
    "name": "USB engineer",
    "description": "Nihil sint blanditiis facilis quidem tempora numquam architecto iusto.",
    "state": 3,
    "createdAt": "2018-06-23T02:41:29.6043944+00:00",
    "finishedAt": null
  },
  
]