[
  {
    "id": 0,
    "name": "Mertz - Rath",
    "createdAt": "2020-10-02T04:26:20.9858682+00:00"
  },
  {
    "id": 1,
    "name": "Osinski - Von",
    "createdAt": "2021-04-16T23:05:34.2539217+00:00"
  },
  {
    "id": 2,
    "name": "Ernser, Dach and Paucek",
    "createdAt": "2021-11-06T16:11:46.498368+00:00"
  },
  {
    "id": 3,
    "name": "Heaney - Tillman",
    "createdAt": "2018-06-04T14:20:00.7983307+00:00"
  },
  {
    "id": 4,
    "name": "Spencer LLC",
    "createdAt": "2020-03-20T07:28:43.463555+00:00"
  },
  {
    "id": 5,
    "name": "Osinski, Abbott and Vandervort",
    "createdAt": "2021-12-10T17:56:45.567663+00:00"
  },
  {
    "id": 6,
    "name": "Morar, Abernathy and Wolf",
    "createdAt": "2021-01-10T09:04:45.6803038+00:00"
  },
  {
    "id": 7,
    "name": "Kulas - Hickle",
    "createdAt": "2019-01-23T04:07:17.3188638+00:00"
  },
  {
    "id": 8,
    "name": "Wolff Inc",
    "createdAt": "2017-03-22T05:12:56.6956353+00:00"
  },
  {
    "id": 9,
    "name": "Carroll, Metz and Rowe",
    "createdAt": "2018-02-22T07:49:34.1389199+00:00"
  }
]